{
    "@context": [
      "https://www.w3.org/2018/credentials/v1"
    ],
    "@type": [
      "VerifiableCredential",
      "DataProduct"
    ],
    "@id": "did:web:dufourstorage.provider.dev.gaiax.ovh:participant:1225ed1cc7755bc5867413f1ca1cf99eb66d4f7a148e10e346390c4bb302f649/vc/12345/data.json",
    "issuer": "did:web:abc-federation.dev.gaiax.ovh",
    "credentialSubject": {
      "@id": "did:web:dufourstorage.provider.dev.gaiax.ovh:participant:1225ed1cc7755bc5867413f1ca1cf99eb66d4f7a148e10e346390c4bb302f649/data-product/1234567890/data.json",
      "@type": "gx-data:DataProduct",
      "gx-data:title": "Glaces et sorbets: allergènes demo",
      "gx-data:description": "Un sorbet ou sorbet glacé est un entremets glacé qui, contrairement à la crème glacée, ne contient pas de crème, de lait ou de jaune d'œuf. Souvent consommé comme dessert, il est préparé à partir d'une purée ou d'un jus de fruits auquel on ajoute un sirop de sucre.",
      "gx-data:issued": "2022-06-22T00:00:00Z",
      "gx:providedBy": "./api/secure/participant/organisations/62b30fd8404fc258d38369ed/verifiableCredential",
      "gx:termsAndConditions": [],
      "gx-data:aggregationOf": [
        {
          "gx-data:identifier": "62b32ab3404fc258d3837f89",
          "gx-data:copyrightOwnedBy": "did:web:example.com/api/secure/participant/organisations/62b30fd8404fc258d38369ed",
          "gx-data:license": [],
          "gx-data:personalDataPolicy": "NO_PERSONAL_DATA",
          "gx-data:distribution": [
            {
              "gx-data:title": "ice_cream_archived.xls",
              "gx-data:mediaType": "application/vnd.ms-excel",
              "gx-data:byteSize": 23552,
              "gx-data:fileHash": "cea466b7813f9dba5613a7d8e4dbd3915116e8c5441e862224486eb854feeb8a",
              "gx-data:algorithm": "SHA-256",
              "gx-data:location": {
                "@id": "did:web:dufourstorage.provider.dev.gaiax.ovh:participant:1225ed1cc7755bc5867413f1ca1cf99eb66d4f7a148e10e346390c4bb302f649/location/80ba30db8dd2622a93be652e8db5b3f3085baabc50d387d1dc3311f76455e22d/data.json",
                "@type": "gx:Location"
              }
            }
          ]
        },
        {
          "gx-data:identifier": "62e790b98829212af7dad7ab",
          "gx-data:copyrightOwnedBy": "did:web:example.com/api/secure/participant/organisations/62b30fd8404fc258d38369ed",
          "gx-data:license": [],
          "gx-data:personalDataPolicy": "NO_PERSONAL_DATA",
          "gx-data:distribution": [
            {
              "gx-data:title": "multidataset.xls",
              "gx-data:mediaType": "application/vnd.ms-excel",
              "gx-data:byteSize": 30965248,
              "gx-data:fileHash": "44f5f116d381c2ab4dab9459a15ab00e5fb043a66832447f2cc5d6a3a18855f1",
              "gx-data:algorithm": "SHA-256",
              "gx-data:location": {
                "@id": "did:web:dufourstorage.provider.dev.gaiax.ovh:participant:1225ed1cc7755bc5867413f1ca1cf99eb66d4f7a148e10e346390c4bb302f649/location/80ba30db8dd2622a93be652e8db5b3f3085baabc50d387d1dc3311f76455e22d/data.json",
                "@type": "gx:Location"
              }
            }
          ]
        }
      ]
    }
  }